arrays => i1: 44, i2: 44, i3: 22, i4: 22
arrays => e1: 44, e2: 44, e3: 22, e4: 22
arrays => ee1: 42, ee2: 24
classes => i1: 44, i2: 44, i3: 22, i4: 22
classes => e1: 44, e2: 44, e3: 22, e4: 22
classes => ee1: 42, ee2: 24
